{
  "verb-tense": "Present",
	"items": [{
		"être": {
			"translation": "be, have, get",
			"answers": {
				"je": "suis",
				"tu": "es",
				"il/elle": "est",
				"nous": "sommes",
				"vous": "êtes",
				"ils/elles": "sont"
			}
		}
	},
	{
		"avoir": {
			"translation": "have, take, give",
			"answers": {
				"je": "j'ai",
				"tu": "as",
				"il/elle": "a",
				"nous": "avons",
				"vous": "avez",
				"ils/elles": "ont"
			}
		}
  },
  {
    "aller": {
      "translation": "go, up, take",
      "answers": {
        "je": "vais",
        "tu": "vas",
        "il/elle": "va",
        "nous": "allons",
        "vous": "allez",
        "ils/elles": "vont"
      }
    }
  },
  {
    "faire": {
      "translation": "make, get, take",
      "answers": {
        "je": "fais",
        "tu": "fais",
        "il/elle": "fait",
        "nous": "faisons",
        "vous": "faites",
        "ils/elles": "font"
      }
    }
  },
  {
    "pouvoir": {
      "translation": "can, be able to, order to",
      "answers": {
        "je": "peux/puis",
        "tu": "peux",
        "il/elle": "peut",
        "nous": "pouvons",
        "vous": "pouvez",
        "ils/elles": "peuvent"
      }
    }
  },
  {
    "partir": {
      "translation": "go, leave, get out",
      "answers": {
        "je": "pars",
        "tu": "pars",
        "il/elle": "part",
        "nous": "partons",
        "vous": "partez",
        "ils/elles": "partent"
      }
    }
  },
  {
    "prendre": {
      "translation": "take, make, get",
      "answers": {
        "je": "prends",
        "tu": "prends",
        "il/elle": "prend",
        "nous": "prenons",
        "vous": "prenez",
        "ils/elles": "prennent"
      }
    }
  },
  {
    "voir": {
      "translation": "see, watch, meet",
      "answers": {
        "je": "vois",
        "tu": "vois",
        "il/elle": "voit",
        "nous": "voyons",
        "vous": "voyez",
        "ils/elles": "voient"
      }
    }
  },
  {
    "venir": {
      "translation": "come, go, bring",
      "answers": {
        "je": "viens",
        "tu": "viens",
        "il/elle": "vient",
        "nous": "venons",
        "vous": "venez",
        "ils/elles": "viennent"
      }
    }
  },
  {
    "devoir": {
      "translation": "must, have, gotta",
      "answers": {
        "je": "dois",
        "tu": "dois",
        "il/elle": "doit",
        "nous": "devons",
        "vous": "devez",
        "ils/elles": "doivent"
      }
    }
  }]
}